         run       event       nTopo   nIdTracks  nTauTracks       nTaus      nMuons       nElec   nTrueElec   nFakeElec       nPhot   nTruePhot   nFakePhot
      242000     3120001         199           6           2           1           1           0           0           0           0           0           0
      242000     3120002         184           6           0           0           1           0           0           0           0           0           0
      242000     3120003         380          35           3           1           2           0           0           0           0           0           0
      242000     3120004         182          11           4           1           0           0           0           0           0           0           0
      242000     3120005         394          36           7           2           2           1           0           1           3           2           1
